%YAML 1.1
%TAG !u! tag:unity3d.com,2011:
--- !u!1045 &1
EditorBuildSettings:
  m_ObjectHideFlags: 0
  serializedVersion: 2
  m_Scenes:
  - enabled: 1
    path: Assets/Scenes/Mainmenu.unity
    guid: 9f3ed1cf536022243992ae1550aa6a7d
  - enabled: 1
    path: Assets/Scenes/Selectlevel.unity
    guid: ceca4e8c5b7a96c4484d252afc2e4b33
  - enabled: 1
    path: Assets/Scenes/Game_level2.unity
    guid: c597cb1fa8766ab4a98af619a91139c8
  - enabled: 1
    path: Assets/Scenes/Game.unity
    guid: 2cda990e2423bbf4892e6590ba056729
  - enabled: 1
    path: Assets/Scenes/Start.unity
    guid: 01872334f76cf4941adfad79d2b90d9e
  m_configObjects: {}
